…
``` r
sleep <- sleep %>%
  distinct() %>%
  drop_na()
```

Let’s clean column names and adjust to lowercase

``` r
activity <- rename_with(activity, tolower)
clean_names(activity)
```

    ## # A tibble: 940 × 15
    ##            id activity…¹ total…² total…³ track…⁴ logge…⁵ verya…⁶ moder…⁷ light…⁸
    ##         <dbl> <chr>        <dbl>   <dbl>   <dbl>   <dbl>   <dbl>   <dbl>   <dbl>
    ##  1 1503960366 4/12/2016    13162    8.5     8.5        0    1.88   0.550    6.06
    ##  2 1503960366 4/13/2016    10735    6.97    6.97       0    1.57   0.690    4.71
    ##  3 1503960366 4/14/2016    10460    6.74    6.74       0    2.44   0.400    3.91
    ##  4 1503960366 4/15/2016     9762    6.28    6.28       0    2.14   1.26     2.83
    ##  5 1503960366 4/16/2016    12669    8.16    8.16       0    2.71   0.410    5.04
    ##  6 1503960366 4/17/2016     9705    6.48    6.48       0    3.19   0.780    2.51
    ##  7 1503960366 4/18/2016    13019    8.59    8.59       0    3.25   0.640    4.71
    ##  8 1503960366 4/19/2016    15506    9.88    9.88       0    3.53   1.32     5.03
    ##  9 1503960366 4/20/2016    10544    6.68    6.68       0    1.96   0.480    4.24
    ## 10 1503960366 4/21/2016     9819    6.34    6.34       0    1.34   0.350    4.65
    ## # … with 930 more rows, 6 more variables: sedentaryactivedistance <dbl>,
    ## #   veryactiveminutes <dbl>, fairlyactiveminutes <dbl>,
    ## #   lightlyactiveminutes <dbl>, sedentaryminutes <dbl>, calories <dbl>, and
    ## #   abbreviated variable names ¹​activitydate, ²​totalsteps, ³​totaldistance,
    ## #   ⁴​trackerdistance, ⁵​loggedactivitiesdistance, ⁶​veryactivedistance,
    ## #   ⁷​moderatelyactivedistance, ⁸​lightactivedistance

``` r
sleep <- rename_with(sleep, tolower)
clean_names(sleep)
```

    ## # A tibble: 410 × 5
    ##            id sleepday              totalsleeprecords totalminutesasleep total…¹
    ##         <dbl> <chr>                             <dbl>              <dbl>   <dbl>
    ##  1 1503960366 4/12/2016 12:00:00 AM                 1                327     346
    ##  2 1503960366 4/13/2016 12:00:00 AM                 2                384     407
    ##  3 1503960366 4/15/2016 12:00:00 AM                 1                412     442
    ##  4 1503960366 4/16/2016 12:00:00 AM                 2                340     367
    ##  5 1503960366 4/17/2016 12:00:00 AM                 1                700     712
    ##  6 1503960366 4/19/2016 12:00:00 AM                 1                304     320
    ##  7 1503960366 4/20/2016 12:00:00 AM                 1                360     377
    ##  8 1503960366 4/21/2016 12:00:00 AM                 1                325     364
    ##  9 1503960366 4/23/2016 12:00:00 AM                 1                361     384
    ## 10 1503960366 4/24/2016 12:00:00 AM                 1                430     449
    ## # … with 400 more rows, and abbreviated variable name ¹​totaltimeinbed

``` r
steps <- rename_with(steps, tolower)
clean_names(steps)
```

    ## # A tibble: 940 × 3
    ##            id activityday steptotal
    ##         <dbl> <chr>           <dbl>
    ##  1 1503960366 4/12/2016       13162
    ##  2 1503960366 4/13/2016       10735
    ##  3 1503960366 4/14/2016       10460
    ##  4 1503960366 4/15/2016        9762
    ##  5 1503960366 4/16/2016       12669
    ##  6 1503960366 4/17/2016        9705
    ##  7 1503960366 4/18/2016       13019
    ##  8 1503960366 4/19/2016       15506
    ##  9 1503960366 4/20/2016       10544
    ## 10 1503960366 4/21/2016        9819
    ## # … with 930 more rows
…
